[{
  "id" : 10,
  "title" : "7 Years",
  "artist" : "Lukas Graham",
  "album" : "Lukas Graham (Blue Album)",
  "released" : 2015
}, {
  "id" : 9,
  "title" : "Private Show",
  "artist" : "Britney Spears",
  "album" : "Glory",
  "released" : 2016
}, {
  "id" : 28,
  "title" : "No",
  "artist" : "Meghan Trainor",
  "album" : "Thank You",
  "released" : 2016
}, {
  "id" : 37,
  "title" : "i hate u, i love u",
  "artist" : "Gnash",
  "album" : "Top Hits 2017",
  "released" : 2017
}, {
  "id" : 46,
  "title" : "I Took a Pill in Ibiza",
  "artist" : "Mike Posner",
  "album" : "At Night, Alone.",
  "released" : 2016
}, {
  "id" : 55,
  "title" : "Bad Things",
  "artist" : "Camila Cabello, Machine Gun Kelly",
  "album" : "Bloom",
  "released" : 2017
}, {
  "id" : 64,
  "title" : "Ghostbusters (I'm not a fraid)",
  "artist" : "Fall Out Boy, Missy Elliott",
  "album" : "Ghostbusters",
  "released" : 2016
}, {
  "id" : 73,
  "title" : "Team",
  "artist" : "Iggy Azalea",
  "album" : null,
  "released" : 2016
}, {
  "id" : 82,
  "title" : "Mom",
  "artist" : "Meghan Trainor, Kelli Trainor",
  "album" : "Thank You",
  "released" : 2016
}, {
  "id" : 91,
  "title" : "Can’t Stop the Feeling",
  "artist" : "Justin Timberlake",
  "album" : "Trolls",
  "released" : 2016
} ]